{
  "iisSettings": {
    "windowsAuthentication": false,
    "anonymousAuthentication": true,
    "iisExpress": {
      "applicationUrl": "http://localhost:59659",
      "sslPort": 0
    }
  },
  "$schema": "http://json.schemastore.org/launchsettings.json",
  "profiles": {
    "IIS Express": {
      "commandName": "IISExpress",
      "launchBrowser": true,
      "launchUrl": "api/pdfcreation",
      "environmentVariables": {
        "SYNCFUSION_LICENSE_KEY": "<License_Key_Development>",
        "ASPNETCORE_ENVIRONMENT": "Development"
      }
    },
    "pdf_creation_with_key": {
      "commandName": "Project",
      "launchBrowser": true,
      "launchUrl": "api/pdfcreation",
      "environmentVariables": {
        "SYNCFUSION_LICENSE_KEY": "<License_Key_Development>",
        "ASPNETCORE_ENVIRONMENT": "Development"
      },
      "applicationUrl": "http://localhost:5000"
    },
    "Docker": {
      "commandName": "Docker",
      "launchBrowser": true,
      "launchUrl": "{Scheme}://{ServiceHost}:{ServicePort}/api/pdfcreation",
      "publishAllPorts": true,
      "environmentVariables": {
        "SYNCFUSION_LICENSE_KEY": "<License_Key_Development>",
        "ASPNETCORE_ENVIRONMENT": "Development"
      }
    }
  }
}